{
	"info": {
		"_postman_id": "06e0cefb-4b18-4027-9e97-5031f28da305",
		"name": "books store",
		"schema": "https://schema.getpostman.com/json/collection/v2.1.0/collection.json"
	},
	"item": [
		{
			"name": "/",
			"request": {
				"method": "GET",
				"header": [],
				"url": {
					"raw": "{{url}}",
					"host": [
						"{{url}}"
					]
				}
			},
			"response": []
		},
		{
			"name": "/getall",
			"request": {
				"method": "GET",
				"header": [],
				"url": {
					"raw": "{{url}}/getall",
					"host": [
						"{{url}}"
					],
					"path": [
						"getall"
					]
				}
			},
			"response": []
		},
		{
			"name": "/getbook",
			"request": {
				"method": "GET",
				"header": [],
				"url": {
					"raw": "{{url}}/getall",
					"host": [
						"{{url}}"
					],
					"path": [
						"getall"
					]
				}
			},
			"response": []
		},
		{
			"name": "/add book",
			"request": {
				"method": "GET",
				"header": [],
				"url": {
					"raw": "{{url}}/add?name=Twilight&author=Stephenie Meyer&published=2006",
					"host": [
						"{{url}}"
					],
					"path": [
						"add"
					],
					"query": [
						{
							"key": "name",
							"value": "Twilight"
						},
						{
							"key": "author",
							"value": "Stephenie Meyer"
						},
						{
							"key": "published",
							"value": "2006"
						}
					]
				}
			},
			"response": []
		}
	]
}